C:\projects\pattern-checker-service\SpringBootApp\src\main\java\page\uploader\util\URL.java
C:\projects\pattern-checker-service\SpringBootApp\src\main\java\page\uploader\service\impl\UploaderServiceImpl.java
C:\projects\pattern-checker-service\SpringBootApp\src\main\java\page\uploader\service\UploaderService.java
C:\projects\pattern-checker-service\SpringBootApp\src\main\java\pages\Main.java
C:\projects\pattern-checker-service\SpringBootApp\src\main\java\page\uploader\components\PatternChecker.java
